^C:\USERS\ESTEE\DOCUMENTS\VISUAL STUDIO 2017\PROJECTS\OPTRECONSTRUCTOR\OPTRECONSTRUCTOR\OPTRECONSTRUCTOR.UI
C:\USERS\ESTEE\DOCUMENTS\VISUAL STUDIO 2017\PROJECTS\OPTRECONSTRUCTOR\OPTRECONSTRUCTOR\GENERATEDFILES\UI_OPTRECONSTRUCTOR.H
^C:\USERS\ESTEE\DOCUMENTS\VISUAL STUDIO 2017\PROJECTS\OPTRECONSTRUCTOR\OPTRECONSTRUCTOR\OPTRECONSTRUCTOR.QRC
C:\USERS\ESTEE\DOCUMENTS\VISUAL STUDIO 2017\PROJECTS\OPTRECONSTRUCTOR\OPTRECONSTRUCTOR\GENERATEDFILES\QRC_OPTRECONSTRUCTOR.CPP
^C:\USERS\ESTEE\DOCUMENTS\VISUAL STUDIO 2017\PROJECTS\OPTRECONSTRUCTOR\OPTRECONSTRUCTOR\OPTRECONSTRUCTOR.H
C:\USERS\ESTEE\DOCUMENTS\VISUAL STUDIO 2017\PROJECTS\OPTRECONSTRUCTOR\OPTRECONSTRUCTOR\GENERATEDFILES\DEBUG\MOC_OPTRECONSTRUCTOR.CPP
