^C:\USERS\ESTEE\DOCUMENTS\VISUAL STUDIO 2017\PROJECTS\OPTRECONSTRUCTOR\OPTRECONSTRUCTOR\X64\DEBUG\MAIN.OBJ|C:\USERS\ESTEE\DOCUMENTS\VISUAL STUDIO 2017\PROJECTS\OPTRECONSTRUCTOR\OPTRECONSTRUCTOR\X64\DEBUG\MOC_OPTRECONSTRUCTOR.OBJ|C:\USERS\ESTEE\DOCUMENTS\VISUAL STUDIO 2017\PROJECTS\OPTRECONSTRUCTOR\OPTRECONSTRUCTOR\X64\DEBUG\OPTRECONSTRUCTOR.OBJ|C:\USERS\ESTEE\DOCUMENTS\VISUAL STUDIO 2017\PROJECTS\OPTRECONSTRUCTOR\OPTRECONSTRUCTOR\X64\DEBUG\QRC_OPTRECONSTRUCTOR.OBJ|C:\USERS\ESTEE\DOCUMENTS\VISUAL STUDIO 2017\PROJECTS\OPTRECONSTRUCTOR\X64\DEBUG\OPTRECONSTRUCT_CUDA.LIB
C:\USERS\ESTEE\DOCUMENTS\VISUAL STUDIO 2017\PROJECTS\OPTRECONSTRUCTOR\X64\DEBUG\OPTRECONSTRUCTOR.EXE
C:\USERS\ESTEE\DOCUMENTS\VISUAL STUDIO 2017\PROJECTS\OPTRECONSTRUCTOR\X64\DEBUG\OPTRECONSTRUCTOR.ILK
C:\USERS\ESTEE\DOCUMENTS\VISUAL STUDIO 2017\PROJECTS\OPTRECONSTRUCTOR\X64\DEBUG\OPTRECONSTRUCTOR.PDB
